CE Data and Passenger Data
…
        Min.      1st Qu.       Median         Mean      3rd Qu.         Max. 
"2021-04-10" "2023-10-11" "2024-07-21" "2024-05-22" "2025-03-01" "2026-10-16" 

Aggregate Events by Month

events_monthly <- events_clean %>%
  group_by(year, month) %>%
  summarise(
    total_events = n(),
    .groups = "drop"
  )

print(events_monthly)

# A tibble: 55 × 3
    year month total_events
   <dbl> <dbl>        <int>
 1  2021     4            3
 2  2021     7            3
 3  2021     8            2
 4  2021     9            3
 5  2021    10           10
 6  2021    11            7
 7  2021    12            5
 8  2022     1            5
 9  2022     2            6
10  2022     3           12
# ℹ 45 more rows
…
passengers_airline <- passengers %>%
  mutate(
    date = as.Date(date),
    year = year(date),
    month = month(date)
  ) %>%
  group_by(year, month, airline) %>%
  summarise(
    passengers = sum(passengers, na.rm = TRUE),
    .groups = "drop"
  )

print(passengers_airline)

# A tibble: 889 × 4
    year month airline            passengers
   <dbl> <dbl> <chr>                   <dbl>
 1  2021     1 Alaska Airlines         12108
 2  2021     1 All Others                  0
 3  2021     1 American Airlines       35887
 4  2021     1 Avianca                     0
 5  2021     1 China Airlines              0
 6  2021     1 Delta Air Lines         20597
 7  2021     1 Frontier Airlines        2654
 8  2021     1 Hawaiian Airlines           0
 9  2021     1 JetBlue                     0
10  2021     1 Southwest Airlines      62364
# ℹ 879 more rows
…
print(data_airline)

# A tibble: 889 × 6
    year month airline            passengers total_events season
   <dbl> <dbl> <chr>                   <dbl>        <dbl> <fct> 
 1  2021     1 Alaska Airlines         12108            0 Winter
 2  2021     1 All Others                  0            0 Winter
 3  2021     1 American Airlines       35887            0 Winter
 4  2021     1 Avianca                     0            0 Winter
 5  2021     1 China Airlines              0            0 Winter
 6  2021     1 Delta Air Lines         20597            0 Winter
 7  2021     1 Frontier Airlines        2654            0 Winter
 8  2021     1 Hawaiian Airlines           0            0 Winter
 9  2021     1 JetBlue                     0            0 Winter
10  2021     1 Southwest Airlines      62364            0 Winter
# ℹ 879 more rows
…
Identify Best Airlines by Scenario

scenario_airline_summary <- scenario_results %>%
  group_by(scenario, airline) %>%
  summarise(
    total_incremental_passengers = sum(incremental_passengers, na.rm = TRUE),
    avg_incremental_passengers = mean(incremental_passengers, na.rm = TRUE),
    .groups = "drop"
  ) %>%
  arrange(scenario, desc(total_incremental_passengers))

print(scenario_airline_summary)

# A tibble: 72 × 4
   scenario  airline            total_incremental_passe…¹ avg_incremental_pass…²
   <chr>     <chr>                                  <dbl>                  <dbl>
 1 Fall +20% Southwest Airlines                    90356.                 1481. 
 2 Fall +20% Frontier Airlines                     71320.                 1169. 
 3 Fall +20% American Airlines                     34049.                  558. 
 4 Fall +20% United Airlines                       29438.                  483. 
 5 Fall +20% China Airlines                        19511.                  320. 
 6 Fall +20% Alaska Airlines                       16839.                  276. 
 7 Fall +20% Delta Air Lines                       15117.                  248. 
 8 Fall +20% Volaris                                5247.                   86.0
 9 Fall +20% JetBlue                                1774.                   29.6
10 Fall +20% Avianca                                1126.                   18.5
# ℹ 62 more rows
# ℹ abbreviated names: ¹​total_incremental_passengers,
#   ²​avg_incremental_passengers
…
