Ontario Airport A04
…
1.5 Total passengers by month

Show code

monthly_total <- passengers %>%
  group_by(date, year, month_num) %>%
  summarise(total_passengers = sum(passengers, na.rm = TRUE), .groups = "drop") %>%
  arrange(date)

print(monthly_total)

# A tibble: 61 × 4
   date        year month_num total_passengers
   <date>     <int>     <int>            <dbl>
 1 2021-01-01  2021         1           151860
 2 2021-02-01  2021         2           152293
 3 2021-03-01  2021         3           259491
 4 2021-04-01  2021         4           298784
 5 2021-05-01  2021         5           366937
 6 2021-06-01  2021         6           431085
 7 2021-07-01  2021         7           477966
 8 2021-08-01  2021         8           467622
 9 2021-09-01  2021         9           453174
10 2021-10-01  2021        10           494727
# ℹ 51 more rows
…
Show code

monthly_yoy <- monthly_total %>%
  arrange(month_num, year) %>%
  group_by(month_num) %>%
  mutate(
    yoy_change = total_passengers - lag(total_passengers),
    yoy_pct = (total_passengers - lag(total_passengers)) / lag(total_passengers) * 100
  ) %>%
  ungroup()

print(monthly_yoy)

# A tibble: 61 × 6
   date        year month_num total_passengers yoy_change yoy_pct
   <date>     <int>     <int>            <dbl>      <dbl>   <dbl>
 1 2021-01-01  2021         1           151860         NA   NA   
 2 2022-01-01  2022         1           339736     187876  124.  
 3 2023-01-01  2023         1           428868      89132   26.2 
 4 2024-01-01  2024         1           469589      40721    9.49
 5 2025-01-01  2025         1           475239       5650    1.20
 6 2026-01-01  2026         1           492895      17656    3.72
 7 2021-02-01  2021         2           152293         NA   NA   
 8 2022-02-01  2022         2           357880     205587  135.  
 9 2023-02-01  2023         2           412924      55044   15.4 
10 2024-02-01  2024         2           449893      36969    8.95
# ℹ 51 more rows
…
1.11 Use airport metric table

1.11.1 Example: Total Passengers metric from metrics file

Show code

total_metric <- metrics %>%
  filter(metric == "Total Passengers") %>%
  arrange(date)

print(total_metric)

# A tibble: 61 × 8
    year month_num month date       metric_raw       metric   value source_sheet
   <int>     <int> <chr> <date>     <chr>            <chr>    <dbl>        <dbl>
 1  2021         1 Jan   2021-01-01 Total Passengers Total … 151860         2021
 2  2021         2 Feb   2021-02-01 Total Passengers Total … 152293         2021
 3  2021         3 Mar   2021-03-01 Total Passengers Total … 259491         2021
 4  2021         4 Apr   2021-04-01 Total Passengers Total … 298784         2021
 5  2021         5 May   2021-05-01 Total Passengers Total … 366937         2021
 6  2021         6 Jun   2021-06-01 Total Passengers Total … 431085         2021
 7  2021         7 Jul   2021-07-01 Total Passengers Total … 477966         2021
 8  2021         8 Aug   2021-08-01 Total Passengers Total … 467622         2021
 9  2021         9 Sep   2021-09-01 Total Passengers Total … 453174         2021
10  2021        10 Oct   2021-10-01 Total Passengers Total … 494727         2021
# ℹ 51 more rows
…
simulation_data <- simulation_data %>%
  mutate(
    estimated_uplift_pct =
      (engagement_score * 0.0015) +
      (sentiment_score * 0.08) +
      (behavior_score * 0.12),

    simulated_passengers = predicted_baseline * (1 + estimated_uplift_pct)
  )

print(simulation_data %>%
        select(date, total_passengers, predicted_baseline, estimated_uplift_pct, simulated_passengers))

# A tibble: 61 × 5
   date       total_passengers predicted_baseline estimated_uplift_pct
   <date>                <dbl>              <dbl>                <dbl>
 1 2021-01-01           151860            258058.                0.107
 2 2021-02-01           152293            256638.                0.107
 3 2021-03-01           259491            358298.                0.107
 4 2021-04-01           298784            382891.                0.107
 5 2021-05-01           366937            430372.                0.107
 6 2021-06-01           431085            455476.                0.107
 7 2021-07-01           477966            477846.                0.107
 8 2021-08-01           467622            459361.                0.107
 9 2021-09-01           453174            438308.                0.107
10 2021-10-01           494727            477102.                0.107
# ℹ 51 more rows
# ℹ 1 more variable: simulated_passengers <dbl>
…
scenario_results <- scenarios %>%
  mutate(
    estimated_uplift_pct =
      (engagement_score * 0.0015) +
      (sentiment_score * 0.08) +
      (behavior_score * 0.12)
  ) %>%
  crossing(baseline_data %>% select(date, predicted_baseline)) %>%
  mutate(
    simulated_passengers = predicted_baseline * (1 + estimated_uplift_pct)
  )

print(scenario_results)

# A tibble: 183 × 8
   scenario engagement_score sentiment_score behavior_score estimated_uplift_pct
   <chr>               <dbl>           <dbl>          <dbl>                <dbl>
 1 Best Ca…               80             0.2           0.35                0.178
 2 Best Ca…               80             0.2           0.35                0.178
 3 Best Ca…               80             0.2           0.35                0.178
 4 Best Ca…               80             0.2           0.35                0.178
 5 Best Ca…               80             0.2           0.35                0.178
 6 Best Ca…               80             0.2           0.35                0.178
 7 Best Ca…               80             0.2           0.35                0.178
 8 Best Ca…               80             0.2           0.35                0.178
 9 Best Ca…               80             0.2           0.35                0.178
10 Best Ca…               80             0.2           0.35                0.178
# ℹ 173 more rows
# ℹ 3 more variables: date <date>, predicted_baseline <dbl>,
#   simulated_passengers <dbl>
…
